{
  "project_info": {
    "project_number": "437953294012",
    "project_id": "hoopsly-captureall",
    "storage_bucket": "hoopsly-captureall.appspot.com"
  },
  "client": [
    {
      "client_info": {
        "mobilesdk_app_id": "1:437953294012:android:10cf03f9ed8d09124d2ab9",
        "android_client_info": {
          "package_name": "com.hoopsly.captureall"
        }
      },
      "oauth_client": [
        {
          "client_id": "437953294012-jbp77csc4otejn2ud8umj9ufvibtf2bn.apps.googleusercontent.com",
          "client_type": 3
        }
      ],
      "api_key": [
        {
          "current_key": "AIzaSyDZ0YVzGPTChsX1ENRyS1seOug6QiGQifU"
        }
      ],
      "services": {
        "appinvite_service": {
          "other_platform_oauth_client": [
            {
              "client_id": "437953294012-jbp77csc4otejn2ud8umj9ufvibtf2bn.apps.googleusercontent.com",
              "client_type": 3
            }
          ]
        }
      }
    }
  ],
  "configuration_version": "1"
}