%YAML 1.1
%TAG !u! tag:unity3d.com,2011:
--- !u!29 &1
OcclusionCullingSettings:
  m_ObjectHideFlags: 0
  serializedVersion: 2
  m_OcclusionBakeSettings:
    smallestOccluder: 5
    smallestHole: 0.25
    backfaceThreshold: 100
  m_SceneGUID: 00000000000000000000000000000000
  m_OcclusionCullingData: {fileID: 0}
--- !u!104 &2
RenderSettings:
  m_ObjectHideFlags: 0
  serializedVersion: 9
  m_Fog: 0
  m_FogColor: {r: 0.5, g: 0.5, b: 0.5, a: 1}
  m_FogMode: 3
  m_FogDensity: 0.01
  m_LinearFogStart: 0
  m_LinearFogEnd: 300
  m_AmbientSkyColor: {r: 0.212, g: 0.227, b: 0.259, a: 1}
  m_AmbientEquatorColor: {r: 0.114, g: 0.125, b: 0.133, a: 1}
  m_AmbientGroundColor: {r: 0.047, g: 0.043, b: 0.035, a: 1}
  m_AmbientIntensity: 1
  m_AmbientMode: 0
  m_SubtractiveShadowColor: {r: 0.42, g: 0.478, b: 0.627, a: 1}
  m_SkyboxMaterial: {fileID: 10304, guid: 0000000000000000f000000000000000, type: 0}
  m_HaloStrength: 0.5
  m_FlareStrength: 1
  m_FlareFadeSpeed: 3
  m_HaloTexture: {fileID: 0}
  m_SpotCookie: {fileID: 10001, guid: 0000000000000000e000000000000000, type: 0}
  m_DefaultReflectionMode: 0
  m_DefaultReflectionResolution: 128
  m_ReflectionBounces: 1
  m_ReflectionIntensity: 1
  m_CustomReflection: {fileID: 0}
  m_Sun: {fileID: 0}
  m_IndirectSpecularColor: {r: 0.44657874, g: 0.49641258, b: 0.5748172, a: 1}
  m_UseRadianceAmbientProbe: 0
--- !u!157 &3
LightmapSettings:
  m_ObjectHideFlags: 0
  serializedVersion: 12
  m_GIWorkflowMode: 1
  m_GISettings:
    serializedVersion: 2
    m_BounceScale: 1
    m_IndirectOutputScale: 1
    m_AlbedoBoost: 1
    m_EnvironmentLightingMode: 0
    m_EnableBakedLightmaps: 1
    m_EnableRealtimeLightmaps: 0
  m_LightmapEditorSettings:
    serializedVersion: 12
    m_Resolution: 2
    m_BakeResolution: 40
    m_AtlasSize: 1024
    m_AO: 0
    m_AOMaxDistance: 1
    m_CompAOExponent: 1
    m_CompAOExponentDirect: 0
    m_ExtractAmbientOcclusion: 0
    m_Padding: 2
    m_LightmapParameters: {fileID: 0}
    m_LightmapsBakeMode: 1
    m_TextureCompression: 1
    m_FinalGather: 0
    m_FinalGatherFiltering: 1
    m_FinalGatherRayCount: 256
    m_ReflectionCompression: 2
    m_MixedBakeMode: 2
    m_BakeBackend: 1
    m_PVRSampling: 1
    m_PVRDirectSampleCount: 32
    m_PVRSampleCount: 512
    m_PVRBounces: 2
    m_PVREnvironmentSampleCount: 256
    m_PVREnvironmentReferencePointCount: 2048
    m_PVRFilteringMode: 1
    m_PVRDenoiserTypeDirect: 1
    m_PVRDenoiserTypeIndirect: 1
    m_PVRDenoiserTypeAO: 1
    m_PVRFilterTypeDirect: 0
    m_PVRFilterTypeIndirect: 0
    m_PVRFilterTypeAO: 0
    m_PVREnvironmentMIS: 1
    m_PVRCulling: 1
    m_PVRFilteringGaussRadiusDirect: 1
    m_PVRFilteringGaussRadiusIndirect: 5
    m_PVRFilteringGaussRadiusAO: 2
    m_PVRFilteringAtrousPositionSigmaDirect: 0.5
    m_PVRFilteringAtrousPositionSigmaIndirect: 2
    m_PVRFilteringAtrousPositionSigmaAO: 1
    m_ExportTrainingData: 0
    m_TrainingDataDestination: TrainingData
    m_LightProbeSampleCountMultiplier: 4
  m_LightingDataAsset: {fileID: 0}
  m_LightingSettings: {fileID: 4890085278179872738, guid: c8e00559536856b419488a65f645ba2e, type: 2}
--- !u!196 &4
NavMeshSettings:
  serializedVersion: 2
  m_ObjectHideFlags: 0
  m_BuildSettings:
    serializedVersion: 2
    agentTypeID: 0
    agentRadius: 0.5
    agentHeight: 2
    agentSlope: 45
    agentClimb: 0.4
    ledgeDropHeight: 0
    maxJumpAcrossDistance: 0
    minRegionArea: 2
    manualCellSize: 0
    cellSize: 0.16666667
    manualTileSize: 0
    tileSize: 256
    accuratePlacement: 0
    maxJobWorkers: 0
    preserveTilesOutsideBounds: 0
    debug:
      m_Flags: 0
  m_NavMeshData: {fileID: 0}
--- !u!1001 &94340500
PrefabInstance:
  m_ObjectHideFlags: 0
  serializedVersion: 2
  m_Modification:
    m_TransformParent: {fileID: 0}
    m_Modifications:
    - target: {fileID: 8338293222144092662, guid: 67542d6bc8d73fc43a475a4b0aea1d03, type: 3}
      propertyPath: m_Name
      value: Tower (4)
      objectReference: {fileID: 0}
    - target: {fileID: 8338293222144092662, guid: 67542d6bc8d73fc43a475a4b0aea1d03, type: 3}
      propertyPath: m_IsActive
      value: 0
      objectReference: {fileID: 0}
    - target: {fileID: 8338293222144092663, guid: 67542d6bc8d73fc43a475a4b0aea1d03, type: 3}
      propertyPath: m_RootOrder
      value: 7
      objectReference: {fileID: 0}
    - target: {fileID: 8338293222144092663, guid: 67542d6bc8d73fc43a475a4b0aea1d03, type: 3}
      propertyPath: m_LocalPosition.x
      value: 5.08
      objectReference: {fileID: 0}
    - target: {fileID: 8338293222144092663, guid: 67542d6bc8d73fc43a475a4b0aea1d03, type: 3}
      propertyPath: m_LocalPosition.y
      value: 0
      objectReference: {fileID: 0}
    - target: {fileID: 8338293222144092663, guid: 67542d6bc8d73fc43a475a4b0aea1d03, type: 3}
      propertyPath: m_LocalPosition.z
      value: 0.7
      objectReference: {fileID: 0}
    - target: {fileID: 8338293222144092663, guid: 67542d6bc8d73fc43a475a4b0aea1d03, type: 3}
      propertyPath: m_LocalRotation.w
      value: 1
      objectReference: {fileID: 0}
    - target: {fileID: 8338293222144092663, guid: 67542d6bc8d73fc43a475a4b0aea1d03, type: 3}
      propertyPath: m_LocalRotation.x
      value: 0
      objectReference: {fileID: 0}
    - target: {fileID: 8338293222144092663, guid: 67542d6bc8d73fc43a475a4b0aea1d03, type: 3}
      propertyPath: m_LocalRotation.y
      value: 0
      objectReference: {fileID: 0}
    - target: {fileID: 8338293222144092663, guid: 67542d6bc8d73fc43a475a4b0aea1d03, type: 3}
      propertyPath: m_LocalRotation.z
      value: 0
      objectReference: {fileID: 0}
    - target: {fileID: 8338293222144092663, guid: 67542d6bc8d73fc43a475a4b0aea1d03, type: 3}
      propertyPath: m_LocalEulerAnglesHint.x
      value: 0
      objectReference: {fileID: 0}
    - target: {fileID: 8338293222144092663, guid: 67542d6bc8d73fc43a475a4b0aea1d03, type: 3}
      propertyPath: m_LocalEulerAnglesHint.y
      value: 0
      objectReference: {fileID: 0}
    - target: {fileID: 8338293222144092663, guid: 67542d6bc8d73fc43a475a4b0aea1d03, type: 3}
      propertyPath: m_LocalEulerAnglesHint.z
      value: 0
      objectReference: {fileID: 0}
    - target: {fileID: 8338293222144092664, guid: 67542d6bc8d73fc43a475a4b0aea1d03, type: 3}
      propertyPath: _fraction
      value: 1
      objectReference: {fileID: 0}
    - target: {fileID: 8338293222144092666, guid: 67542d6bc8d73fc43a475a4b0aea1d03, type: 3}
      propertyPath: _startValue
      value: 5
      objectReference: {fileID: 0}
    m_RemovedComponents: []
  m_SourcePrefab: {fileID: 100100000, guid: 67542d6bc8d73fc43a475a4b0aea1d03, type: 3}
--- !u!1001 &349042765
PrefabInstance:
  m_ObjectHideFlags: 0
  serializedVersion: 2
  m_Modification:
    m_TransformParent: {fileID: 0}
    m_Modifications:
    - target: {fileID: 8338293222144092662, guid: db5316c1f0d87ed46b0c7163ca835769, type: 3}
      propertyPath: m_Name
      value: ShootingTower
      objectReference: {fileID: 0}
    - target: {fileID: 8338293222144092662, guid: db5316c1f0d87ed46b0c7163ca835769, type: 3}
      propertyPath: m_IsActive
      value: 0
      objectReference: {fileID: 0}
    - target: {fileID: 8338293222144092663, guid: db5316c1f0d87ed46b0c7163ca835769, type: 3}
      propertyPath: m_RootOrder
      value: 8
      objectReference: {fileID: 0}
    - target: {fileID: 8338293222144092663, guid: db5316c1f0d87ed46b0c7163ca835769, type: 3}
      propertyPath: m_LocalPosition.x
      value: -4.25
      objectReference: {fileID: 0}
    - target: {fileID: 8338293222144092663, guid: db5316c1f0d87ed46b0c7163ca835769, type: 3}
      propertyPath: m_LocalPosition.y
      value: 0
      objectReference: {fileID: 0}
    - target: {fileID: 8338293222144092663, guid: db5316c1f0d87ed46b0c7163ca835769, type: 3}
      propertyPath: m_LocalPosition.z
      value: 19.25
      objectReference: {fileID: 0}
    - target: {fileID: 8338293222144092663, guid: db5316c1f0d87ed46b0c7163ca835769, type: 3}
      propertyPath: m_LocalRotation.w
      value: 1
      objectReference: {fileID: 0}
    - target: {fileID: 8338293222144092663, guid: db5316c1f0d87ed46b0c7163ca835769, type: 3}
      propertyPath: m_LocalRotation.x
      value: 0
      objectReference: {fileID: 0}
    - target: {fileID: 8338293222144092663, guid: db5316c1f0d87ed46b0c7163ca835769, type: 3}
      propertyPath: m_LocalRotation.y
      value: 0
      objectReference: {fileID: 0}
    - target: {fileID: 8338293222144092663, guid: db5316c1f0d87ed46b0c7163ca835769, type: 3}
      propertyPath: m_LocalRotation.z
      value: 0
      objectReference: {fileID: 0}
    - target: {fileID: 8338293222144092663, guid: db5316c1f0d87ed46b0c7163ca835769, type: 3}
      propertyPath: m_LocalEulerAnglesHint.x
      value: 0
      objectReference: {fileID: 0}
    - target: {fileID: 8338293222144092663, guid: db5316c1f0d87ed46b0c7163ca835769, type: 3}
      propertyPath: m_LocalEulerAnglesHint.y
      value: 0
      objectReference: {fileID: 0}
    - target: {fileID: 8338293222144092663, guid: db5316c1f0d87ed46b0c7163ca835769, type: 3}
      propertyPath: m_LocalEulerAnglesHint.z
      value: 0
      objectReference: {fileID: 0}
    m_RemovedComponents: []
  m_SourcePrefab: {fileID: 100100000, guid: db5316c1f0d87ed46b0c7163ca835769, type: 3}
--- !u!1001 &1410279263
PrefabInstance:
  m_ObjectHideFlags: 0
  serializedVersion: 2
  m_Modification:
    m_TransformParent: {fileID: 0}
    m_Modifications:
    - target: {fileID: 8338293222144092662, guid: 60eb5220d1764c048947fc0e7b4a672a, type: 3}
      propertyPath: m_Name
      value: DefendingTower
      objectReference: {fileID: 0}
    - target: {fileID: 8338293222144092662, guid: 60eb5220d1764c048947fc0e7b4a672a, type: 3}
      propertyPath: m_IsActive
      value: 0
      objectReference: {fileID: 0}
    - target: {fileID: 8338293222144092663, guid: 60eb5220d1764c048947fc0e7b4a672a, type: 3}
      propertyPath: m_RootOrder
      value: 9
      objectReference: {fileID: 0}
    - target: {fileID: 8338293222144092663, guid: 60eb5220d1764c048947fc0e7b4a672a, type: 3}
      propertyPath: m_LocalPosition.x
      value: -7.429899
      objectReference: {fileID: 0}
    - target: {fileID: 8338293222144092663, guid: 60eb5220d1764c048947fc0e7b4a672a, type: 3}
      propertyPath: m_LocalPosition.y
      value: 0.050001144
      objectReference: {fileID: 0}
    - target: {fileID: 8338293222144092663, guid: 60eb5220d1764c048947fc0e7b4a672a, type: 3}
      propertyPath: m_LocalPosition.z
      value: 5.7115498
      objectReference: {fileID: 0}
    - target: {fileID: 8338293222144092663, guid: 60eb5220d1764c048947fc0e7b4a672a, type: 3}
      propertyPath: m_LocalRotation.w
      value: 1
      objectReference: {fileID: 0}
    - target: {fileID: 8338293222144092663, guid: 60eb5220d1764c048947fc0e7b4a672a, type: 3}
      propertyPath: m_LocalRotation.x
      value: 0
      objectReference: {fileID: 0}
    - target: {fileID: 8338293222144092663, guid: 60eb5220d1764c048947fc0e7b4a672a, type: 3}
      propertyPath: m_LocalRotation.y
      value: 0
      objectReference: {fileID: 0}
    - target: {fileID: 8338293222144092663, guid: 60eb5220d1764c048947fc0e7b4a672a, type: 3}
      propertyPath: m_LocalRotation.z
      value: 0
      objectReference: {fileID: 0}
    - target: {fileID: 8338293222144092663, guid: 60eb5220d1764c048947fc0e7b4a672a, type: 3}
      propertyPath: m_LocalEulerAnglesHint.x
      value: 0
      objectReference: {fileID: 0}
    - target: {fileID: 8338293222144092663, guid: 60eb5220d1764c048947fc0e7b4a672a, type: 3}
      propertyPath: m_LocalEulerAnglesHint.y
      value: 0
      objectReference: {fileID: 0}
    - target: {fileID: 8338293222144092663, guid: 60eb5220d1764c048947fc0e7b4a672a, type: 3}
      propertyPath: m_LocalEulerAnglesHint.z
      value: 0
      objectReference: {fileID: 0}
    m_RemovedComponents: []
  m_SourcePrefab: {fileID: 100100000, guid: 60eb5220d1764c048947fc0e7b4a672a, type: 3}
--- !u!1001 &1516825942
PrefabInstance:
  m_ObjectHideFlags: 0
  serializedVersion: 2
  m_Modification:
    m_TransformParent: {fileID: 0}
    m_Modifications:
    - target: {fileID: 1034657129972580886, guid: b121c760b74049c4eaa7dda6c7064032, type: 3}
      propertyPath: m_RootOrder
      value: 2
      objectReference: {fileID: 0}
    - target: {fileID: 1034657129972580886, guid: b121c760b74049c4eaa7dda6c7064032, type: 3}
      propertyPath: m_LocalPosition.x
      value: -1
      objectReference: {fileID: 0}
    - target: {fileID: 1034657129972580886, guid: b121c760b74049c4eaa7dda6c7064032, type: 3}
      propertyPath: m_LocalPosition.y
      value: 0.050001144
      objectReference: {fileID: 0}
    - target: {fileID: 1034657129972580886, guid: b121c760b74049c4eaa7dda6c7064032, type: 3}
      propertyPath: m_LocalPosition.z
      value: 14.07
      objectReference: {fileID: 0}
    - target: {fileID: 1034657129972580886, guid: b121c760b74049c4eaa7dda6c7064032, type: 3}
      propertyPath: m_LocalRotation.w
      value: 0.99613994
      objectReference: {fileID: 0}
    - target: {fileID: 1034657129972580886, guid: b121c760b74049c4eaa7dda6c7064032, type: 3}
      propertyPath: m_LocalRotation.x
      value: -0
      objectReference: {fileID: 0}
    - target: {fileID: 1034657129972580886, guid: b121c760b74049c4eaa7dda6c7064032, type: 3}
      propertyPath: m_LocalRotation.y
      value: 0.087779894
      objectReference: {fileID: 0}
    - target: {fileID: 1034657129972580886, guid: b121c760b74049c4eaa7dda6c7064032, type: 3}
      propertyPath: m_LocalRotation.z
      value: -0
      objectReference: {fileID: 0}
    - target: {fileID: 1034657129972580886, guid: b121c760b74049c4eaa7dda6c7064032, type: 3}
      propertyPath: m_LocalEulerAnglesHint.x
      value: 0
      objectReference: {fileID: 0}
    - target: {fileID: 1034657129972580886, guid: b121c760b74049c4eaa7dda6c7064032, type: 3}
      propertyPath: m_LocalEulerAnglesHint.y
      value: 10.072
      objectReference: {fileID: 0}
    - target: {fileID: 1034657129972580886, guid: b121c760b74049c4eaa7dda6c7064032, type: 3}
      propertyPath: m_LocalEulerAnglesHint.z
      value: 0
      objectReference: {fileID: 0}
    - target: {fileID: 1034657129972580887, guid: b121c760b74049c4eaa7dda6c7064032, type: 3}
      propertyPath: m_Name
      value: Door
      objectReference: {fileID: 0}
    - target: {fileID: 1034657129972580887, guid: b121c760b74049c4eaa7dda6c7064032, type: 3}
      propertyPath: m_IsActive
      value: 0
      objectReference: {fileID: 0}
    - target: {fileID: 5058836082482849711, guid: b121c760b74049c4eaa7dda6c7064032, type: 3}
      propertyPath: m_Size.y
      value: 1.3
      objectReference: {fileID: 0}
    m_RemovedComponents: []
  m_SourcePrefab: {fileID: 100100000, guid: b121c760b74049c4eaa7dda6c7064032, type: 3}
--- !u!1001 &1609530183
PrefabInstance:
  m_ObjectHideFlags: 0
  serializedVersion: 2
  m_Modification:
    m_TransformParent: {fileID: 0}
    m_Modifications:
    - target: {fileID: 3478662926948106990, guid: 155fb5e8c6883294482687f23fa61b48, type: 3}
      propertyPath: multiplier
      value: 2
      objectReference: {fileID: 0}
    - target: {fileID: 5732057946250459207, guid: 155fb5e8c6883294482687f23fa61b48, type: 3}
      propertyPath: m_Text
      value: x5
      objectReference: {fileID: 0}
    - target: {fileID: 5732057946951551266, guid: 155fb5e8c6883294482687f23fa61b48, type: 3}
      propertyPath: m_Name
      value: Multiply Gate
      objectReference: {fileID: 0}
    - target: {fileID: 5732057946951551267, guid: 155fb5e8c6883294482687f23fa61b48, type: 3}
      propertyPath: m_RootOrder
      value: 1
      objectReference: {fileID: 0}
    - target: {fileID: 5732057946951551267, guid: 155fb5e8c6883294482687f23fa61b48, type: 3}
      propertyPath: m_LocalPosition.x
      value: 0
      objectReference: {fileID: 0}
    - target: {fileID: 5732057946951551267, guid: 155fb5e8c6883294482687f23fa61b48, type: 3}
      propertyPath: m_LocalPosition.y
      value: 0.05000019
      objectReference: {fileID: 0}
    - target: {fileID: 5732057946951551267, guid: 155fb5e8c6883294482687f23fa61b48, type: 3}
      propertyPath: m_LocalPosition.z
      value: 10.04
      objectReference: {fileID: 0}
    - target: {fileID: 5732057946951551267, guid: 155fb5e8c6883294482687f23fa61b48, type: 3}
      propertyPath: m_LocalRotation.w
      value: 1
      objectReference: {fileID: 0}
    - target: {fileID: 5732057946951551267, guid: 155fb5e8c6883294482687f23fa61b48, type: 3}
      propertyPath: m_LocalRotation.x
      value: 0
      objectReference: {fileID: 0}
    - target: {fileID: 5732057946951551267, guid: 155fb5e8c6883294482687f23fa61b48, type: 3}
      propertyPath: m_LocalRotation.y
      value: 0
      objectReference: {fileID: 0}
    - target: {fileID: 5732057946951551267, guid: 155fb5e8c6883294482687f23fa61b48, type: 3}
      propertyPath: m_LocalRotation.z
      value: 0
      objectReference: {fileID: 0}
    - target: {fileID: 5732057946951551267, guid: 155fb5e8c6883294482687f23fa61b48, type: 3}
      propertyPath: m_LocalEulerAnglesHint.x
      value: 0
      objectReference: {fileID: 0}
    - target: {fileID: 5732057946951551267, guid: 155fb5e8c6883294482687f23fa61b48, type: 3}
      propertyPath: m_LocalEulerAnglesHint.y
      value: 0
      objectReference: {fileID: 0}
    - target: {fileID: 5732057946951551267, guid: 155fb5e8c6883294482687f23fa61b48, type: 3}
      propertyPath: m_LocalEulerAnglesHint.z
      value: 0
      objectReference: {fileID: 0}
    m_RemovedComponents: []
  m_SourcePrefab: {fileID: 100100000, guid: 155fb5e8c6883294482687f23fa61b48, type: 3}
--- !u!1001 &1689526080
PrefabInstance:
  m_ObjectHideFlags: 0
  serializedVersion: 2
  m_Modification:
    m_TransformParent: {fileID: 0}
    m_Modifications:
    - target: {fileID: 8338293222144092662, guid: 67542d6bc8d73fc43a475a4b0aea1d03, type: 3}
      propertyPath: m_Name
      value: Tower (1)
      objectReference: {fileID: 0}
    - target: {fileID: 8338293222144092662, guid: 67542d6bc8d73fc43a475a4b0aea1d03, type: 3}
      propertyPath: m_IsActive
      value: 0
      objectReference: {fileID: 0}
    - target: {fileID: 8338293222144092663, guid: 67542d6bc8d73fc43a475a4b0aea1d03, type: 3}
      propertyPath: m_RootOrder
      value: 4
      objectReference: {fileID: 0}
    - target: {fileID: 8338293222144092663, guid: 67542d6bc8d73fc43a475a4b0aea1d03, type: 3}
      propertyPath: m_LocalPosition.x
      value: 0.47999954
      objectReference: {fileID: 0}
    - target: {fileID: 8338293222144092663, guid: 67542d6bc8d73fc43a475a4b0aea1d03, type: 3}
      propertyPath: m_LocalPosition.y
      value: 0
      objectReference: {fileID: 0}
    - target: {fileID: 8338293222144092663, guid: 67542d6bc8d73fc43a475a4b0aea1d03, type: 3}
      propertyPath: m_LocalPosition.z
      value: 21.7
      objectReference: {fileID: 0}
    - target: {fileID: 8338293222144092663, guid: 67542d6bc8d73fc43a475a4b0aea1d03, type: 3}
      propertyPath: m_LocalRotation.w
      value: 1
      objectReference: {fileID: 0}
    - target: {fileID: 8338293222144092663, guid: 67542d6bc8d73fc43a475a4b0aea1d03, type: 3}
      propertyPath: m_LocalRotation.x
      value: 0
      objectReference: {fileID: 0}
    - target: {fileID: 8338293222144092663, guid: 67542d6bc8d73fc43a475a4b0aea1d03, type: 3}
      propertyPath: m_LocalRotation.y
      value: 0
      objectReference: {fileID: 0}
    - target: {fileID: 8338293222144092663, guid: 67542d6bc8d73fc43a475a4b0aea1d03, type: 3}
      propertyPath: m_LocalRotation.z
      value: 0
      objectReference: {fileID: 0}
    - target: {fileID: 8338293222144092663, guid: 67542d6bc8d73fc43a475a4b0aea1d03, type: 3}
      propertyPath: m_LocalEulerAnglesHint.x
      value: 0
      objectReference: {fileID: 0}
    - target: {fileID: 8338293222144092663, guid: 67542d6bc8d73fc43a475a4b0aea1d03, type: 3}
      propertyPath: m_LocalEulerAnglesHint.y
      value: 0
      objectReference: {fileID: 0}
    - target: {fileID: 8338293222144092663, guid: 67542d6bc8d73fc43a475a4b0aea1d03, type: 3}
      propertyPath: m_LocalEulerAnglesHint.z
      value: 0
      objectReference: {fileID: 0}
    - target: {fileID: 8338293222144092664, guid: 67542d6bc8d73fc43a475a4b0aea1d03, type: 3}
      propertyPath: _fraction
      value: 2
      objectReference: {fileID: 0}
    - target: {fileID: 8338293222144092666, guid: 67542d6bc8d73fc43a475a4b0aea1d03, type: 3}
      propertyPath: _startValue
      value: 2
      objectReference: {fileID: 0}
    m_RemovedComponents: []
  m_SourcePrefab: {fileID: 100100000, guid: 67542d6bc8d73fc43a475a4b0aea1d03, type: 3}
--- !u!1001 &1690494278
PrefabInstance:
  m_ObjectHideFlags: 0
  serializedVersion: 2
  m_Modification:
    m_TransformParent: {fileID: 0}
    m_Modifications:
    - target: {fileID: 5809141668247261427, guid: 67542d6bc8d73fc43a475a4b0aea1d03, type: 3}
      propertyPath: _startValue
      value: 10
      objectReference: {fileID: 0}
    - target: {fileID: 8338293222144092662, guid: 67542d6bc8d73fc43a475a4b0aea1d03, type: 3}
      propertyPath: m_Name
      value: Tower (2)
      objectReference: {fileID: 0}
    - target: {fileID: 8338293222144092662, guid: 67542d6bc8d73fc43a475a4b0aea1d03, type: 3}
      propertyPath: m_IsActive
      value: 1
      objectReference: {fileID: 0}
    - target: {fileID: 8338293222144092663, guid: 67542d6bc8d73fc43a475a4b0aea1d03, type: 3}
      propertyPath: m_RootOrder
      value: 5
      objectReference: {fileID: 0}
    - target: {fileID: 8338293222144092663, guid: 67542d6bc8d73fc43a475a4b0aea1d03, type: 3}
      propertyPath: m_LocalPosition.x
      value: 0
      objectReference: {fileID: 0}
    - target: {fileID: 8338293222144092663, guid: 67542d6bc8d73fc43a475a4b0aea1d03, type: 3}
      propertyPath: m_LocalPosition.y
      value: 0
      objectReference: {fileID: 0}
    - target: {fileID: 8338293222144092663, guid: 67542d6bc8d73fc43a475a4b0aea1d03, type: 3}
      propertyPath: m_LocalPosition.z
      value: 15.8
      objectReference: {fileID: 0}
    - target: {fileID: 8338293222144092663, guid: 67542d6bc8d73fc43a475a4b0aea1d03, type: 3}
      propertyPath: m_LocalRotation.w
      value: 1
      objectReference: {fileID: 0}
    - target: {fileID: 8338293222144092663, guid: 67542d6bc8d73fc43a475a4b0aea1d03, type: 3}
      propertyPath: m_LocalRotation.x
      value: 0
      objectReference: {fileID: 0}
    - target: {fileID: 8338293222144092663, guid: 67542d6bc8d73fc43a475a4b0aea1d03, type: 3}
      propertyPath: m_LocalRotation.y
      value: 0
      objectReference: {fileID: 0}
    - target: {fileID: 8338293222144092663, guid: 67542d6bc8d73fc43a475a4b0aea1d03, type: 3}
      propertyPath: m_LocalRotation.z
      value: 0
      objectReference: {fileID: 0}
    - target: {fileID: 8338293222144092663, guid: 67542d6bc8d73fc43a475a4b0aea1d03, type: 3}
      propertyPath: m_LocalEulerAnglesHint.x
      value: 0
      objectReference: {fileID: 0}
    - target: {fileID: 8338293222144092663, guid: 67542d6bc8d73fc43a475a4b0aea1d03, type: 3}
      propertyPath: m_LocalEulerAnglesHint.y
      value: 0
      objectReference: {fileID: 0}
    - target: {fileID: 8338293222144092663, guid: 67542d6bc8d73fc43a475a4b0aea1d03, type: 3}
      propertyPath: m_LocalEulerAnglesHint.z
      value: 0
      objectReference: {fileID: 0}
    - target: {fileID: 8338293222144092664, guid: 67542d6bc8d73fc43a475a4b0aea1d03, type: 3}
      propertyPath: _door
      value: 
      objectReference: {fileID: 0}
    - target: {fileID: 8338293222144092664, guid: 67542d6bc8d73fc43a475a4b0aea1d03, type: 3}
      propertyPath: _fraction
      value: 0
      objectReference: {fileID: 0}
    - target: {fileID: 8338293222144092666, guid: 67542d6bc8d73fc43a475a4b0aea1d03, type: 3}
      propertyPath: _startValue
      value: 5
      objectReference: {fileID: 0}
    m_RemovedComponents: []
  m_SourcePrefab: {fileID: 100100000, guid: 67542d6bc8d73fc43a475a4b0aea1d03, type: 3}
--- !u!1001 &1785080102
PrefabInstance:
  m_ObjectHideFlags: 0
  serializedVersion: 2
  m_Modification:
    m_TransformParent: {fileID: 0}
    m_Modifications:
    - target: {fileID: 8338293222144092662, guid: 67542d6bc8d73fc43a475a4b0aea1d03, type: 3}
      propertyPath: m_Name
      value: Tower (3)
      objectReference: {fileID: 0}
    - target: {fileID: 8338293222144092662, guid: 67542d6bc8d73fc43a475a4b0aea1d03, type: 3}
      propertyPath: m_IsActive
      value: 0
      objectReference: {fileID: 0}
    - target: {fileID: 8338293222144092663, guid: 67542d6bc8d73fc43a475a4b0aea1d03, type: 3}
      propertyPath: m_RootOrder
      value: 6
      objectReference: {fileID: 0}
    - target: {fileID: 8338293222144092663, guid: 67542d6bc8d73fc43a475a4b0aea1d03, type: 3}
      propertyPath: m_LocalPosition.x
      value: 6.4799995
      objectReference: {fileID: 0}
    - target: {fileID: 8338293222144092663, guid: 67542d6bc8d73fc43a475a4b0aea1d03, type: 3}
      propertyPath: m_LocalPosition.y
      value: 0
      objectReference: {fileID: 0}
    - target: {fileID: 8338293222144092663, guid: 67542d6bc8d73fc43a475a4b0aea1d03, type: 3}
      propertyPath: m_LocalPosition.z
      value: 11.5
      objectReference: {fileID: 0}
    - target: {fileID: 8338293222144092663, guid: 67542d6bc8d73fc43a475a4b0aea1d03, type: 3}
      propertyPath: m_LocalRotation.w
      value: 1
      objectReference: {fileID: 0}
    - target: {fileID: 8338293222144092663, guid: 67542d6bc8d73fc43a475a4b0aea1d03, type: 3}
      propertyPath: m_LocalRotation.x
      value: 0
      objectReference: {fileID: 0}
    - target: {fileID: 8338293222144092663, guid: 67542d6bc8d73fc43a475a4b0aea1d03, type: 3}
      propertyPath: m_LocalRotation.y
      value: 0
      objectReference: {fileID: 0}
    - target: {fileID: 8338293222144092663, guid: 67542d6bc8d73fc43a475a4b0aea1d03, type: 3}
      propertyPath: m_LocalRotation.z
      value: 0
      objectReference: {fileID: 0}
    - target: {fileID: 8338293222144092663, guid: 67542d6bc8d73fc43a475a4b0aea1d03, type: 3}
      propertyPath: m_LocalEulerAnglesHint.x
      value: 0
      objectReference: {fileID: 0}
    - target: {fileID: 8338293222144092663, guid: 67542d6bc8d73fc43a475a4b0aea1d03, type: 3}
      propertyPath: m_LocalEulerAnglesHint.y
      value: 0
      objectReference: {fileID: 0}
    - target: {fileID: 8338293222144092663, guid: 67542d6bc8d73fc43a475a4b0aea1d03, type: 3}
      propertyPath: m_LocalEulerAnglesHint.z
      value: 0
      objectReference: {fileID: 0}
    - target: {fileID: 8338293222144092664, guid: 67542d6bc8d73fc43a475a4b0aea1d03, type: 3}
      propertyPath: _fraction
      value: 1
      objectReference: {fileID: 0}
    - target: {fileID: 8338293222144092666, guid: 67542d6bc8d73fc43a475a4b0aea1d03, type: 3}
      propertyPath: _startValue
      value: 22
      objectReference: {fileID: 0}
    m_RemovedComponents: []
  m_SourcePrefab: {fileID: 100100000, guid: 67542d6bc8d73fc43a475a4b0aea1d03, type: 3}
--- !u!1001 &1998592674
PrefabInstance:
  m_ObjectHideFlags: 0
  serializedVersion: 2
  m_Modification:
    m_TransformParent: {fileID: 0}
    m_Modifications:
    - target: {fileID: 5809141668247261427, guid: 67542d6bc8d73fc43a475a4b0aea1d03, type: 3}
      propertyPath: _startValue
      value: 15
      objectReference: {fileID: 0}
    - target: {fileID: 8338293222144092662, guid: 67542d6bc8d73fc43a475a4b0aea1d03, type: 3}
      propertyPath: m_Name
      value: Tower
      objectReference: {fileID: 0}
    - target: {fileID: 8338293222144092663, guid: 67542d6bc8d73fc43a475a4b0aea1d03, type: 3}
      propertyPath: m_RootOrder
      value: 3
      objectReference: {fileID: 0}
    - target: {fileID: 8338293222144092663, guid: 67542d6bc8d73fc43a475a4b0aea1d03, type: 3}
      propertyPath: m_LocalPosition.x
      value: 0
      objectReference: {fileID: 0}
    - target: {fileID: 8338293222144092663, guid: 67542d6bc8d73fc43a475a4b0aea1d03, type: 3}
      propertyPath: m_LocalPosition.y
      value: 0
      objectReference: {fileID: 0}
    - target: {fileID: 8338293222144092663, guid: 67542d6bc8d73fc43a475a4b0aea1d03, type: 3}
      propertyPath: m_LocalPosition.z
      value: 4.57
      objectReference: {fileID: 0}
    - target: {fileID: 8338293222144092663, guid: 67542d6bc8d73fc43a475a4b0aea1d03, type: 3}
      propertyPath: m_LocalRotation.w
      value: 1
      objectReference: {fileID: 0}
    - target: {fileID: 8338293222144092663, guid: 67542d6bc8d73fc43a475a4b0aea1d03, type: 3}
      propertyPath: m_LocalRotation.x
      value: 0
      objectReference: {fileID: 0}
    - target: {fileID: 8338293222144092663, guid: 67542d6bc8d73fc43a475a4b0aea1d03, type: 3}
      propertyPath: m_LocalRotation.y
      value: 0
      objectReference: {fileID: 0}
    - target: {fileID: 8338293222144092663, guid: 67542d6bc8d73fc43a475a4b0aea1d03, type: 3}
      propertyPath: m_LocalRotation.z
      value: 0
      objectReference: {fileID: 0}
    - target: {fileID: 8338293222144092663, guid: 67542d6bc8d73fc43a475a4b0aea1d03, type: 3}
      propertyPath: m_LocalEulerAnglesHint.x
      value: 0
      objectReference: {fileID: 0}
    - target: {fileID: 8338293222144092663, guid: 67542d6bc8d73fc43a475a4b0aea1d03, type: 3}
      propertyPath: m_LocalEulerAnglesHint.y
      value: 0
      objectReference: {fileID: 0}
    - target: {fileID: 8338293222144092663, guid: 67542d6bc8d73fc43a475a4b0aea1d03, type: 3}
      propertyPath: m_LocalEulerAnglesHint.z
      value: 0
      objectReference: {fileID: 0}
    - target: {fileID: 8338293222144092664, guid: 67542d6bc8d73fc43a475a4b0aea1d03, type: 3}
      propertyPath: _fraction
      value: 1
      objectReference: {fileID: 0}
    - target: {fileID: 8338293222144092665, guid: 67542d6bc8d73fc43a475a4b0aea1d03, type: 3}
      propertyPath: m_Enabled
      value: 1
      objectReference: {fileID: 0}
    - target: {fileID: 8338293222144092666, guid: 67542d6bc8d73fc43a475a4b0aea1d03, type: 3}
      propertyPath: _startValue
      value: 12
      objectReference: {fileID: 0}
    m_RemovedComponents: []
  m_SourcePrefab: {fileID: 100100000, guid: 67542d6bc8d73fc43a475a4b0aea1d03, type: 3}
--- !u!1001 &4960045455770333363
PrefabInstance:
  m_ObjectHideFlags: 0
  serializedVersion: 2
  m_Modification:
    m_TransformParent: {fileID: 0}
    m_Modifications:
    - target: {fileID: 1377776212054411265, guid: f1ce6e94f90977649a8bf0d4991433cc, type: 3}
      propertyPath: m_LocalEulerAnglesHint.z
      value: 0
      objectReference: {fileID: 0}
    - target: {fileID: 4814195931188482674, guid: f1ce6e94f90977649a8bf0d4991433cc, type: 3}
      propertyPath: m_LocalEulerAnglesHint.z
      value: 0
      objectReference: {fileID: 0}
    - target: {fileID: 4960045457638411041, guid: f1ce6e94f90977649a8bf0d4991433cc, type: 3}
      propertyPath: _isFreePlay
      value: 0
      objectReference: {fileID: 0}
    - target: {fileID: 4960045457749644986, guid: f1ce6e94f90977649a8bf0d4991433cc, type: 3}
      propertyPath: m_RootOrder
      value: 0
      objectReference: {fileID: 0}
    - target: {fileID: 4960045457749644986, guid: f1ce6e94f90977649a8bf0d4991433cc, type: 3}
      propertyPath: m_LocalPosition.x
      value: 0
      objectReference: {fileID: 0}
    - target: {fileID: 4960045457749644986, guid: f1ce6e94f90977649a8bf0d4991433cc, type: 3}
      propertyPath: m_LocalPosition.y
      value: -17.860365
      objectReference: {fileID: 0}
    - target: {fileID: 4960045457749644986, guid: f1ce6e94f90977649a8bf0d4991433cc, type: 3}
      propertyPath: m_LocalPosition.z
      value: 22.96017
      objectReference: {fileID: 0}
    - target: {fileID: 4960045457749644986, guid: f1ce6e94f90977649a8bf0d4991433cc, type: 3}
      propertyPath: m_LocalRotation.w
      value: 1
      objectReference: {fileID: 0}
    - target: {fileID: 4960045457749644986, guid: f1ce6e94f90977649a8bf0d4991433cc, type: 3}
      propertyPath: m_LocalRotation.x
      value: 0
      objectReference: {fileID: 0}
    - target: {fileID: 4960045457749644986, guid: f1ce6e94f90977649a8bf0d4991433cc, type: 3}
      propertyPath: m_LocalRotation.y
      value: 0
      objectReference: {fileID: 0}
    - target: {fileID: 4960045457749644986, guid: f1ce6e94f90977649a8bf0d4991433cc, type: 3}
      propertyPath: m_LocalRotation.z
      value: 0
      objectReference: {fileID: 0}
    - target: {fileID: 4960045457749644986, guid: f1ce6e94f90977649a8bf0d4991433cc, type: 3}
      propertyPath: m_LocalEulerAnglesHint.x
      value: 0
      objectReference: {fileID: 0}
    - target: {fileID: 4960045457749644986, guid: f1ce6e94f90977649a8bf0d4991433cc, type: 3}
      propertyPath: m_LocalEulerAnglesHint.y
      value: 0
      objectReference: {fileID: 0}
    - target: {fileID: 4960045457749644986, guid: f1ce6e94f90977649a8bf0d4991433cc, type: 3}
      propertyPath: m_LocalEulerAnglesHint.z
      value: 0
      objectReference: {fileID: 0}
    - target: {fileID: 4960045457749644987, guid: f1ce6e94f90977649a8bf0d4991433cc, type: 3}
      propertyPath: m_Name
      value: _Level Prefab
      objectReference: {fileID: 0}
    - target: {fileID: 5008983569546678624, guid: f1ce6e94f90977649a8bf0d4991433cc, type: 3}
      propertyPath: m_AnchoredPosition.x
      value: -170
      objectReference: {fileID: 0}
    - target: {fileID: 5238267689953358577, guid: f1ce6e94f90977649a8bf0d4991433cc, type: 3}
      propertyPath: m_LocalEulerAnglesHint.z
      value: 0
      objectReference: {fileID: 0}
    - target: {fileID: 5777180302283379729, guid: f1ce6e94f90977649a8bf0d4991433cc, type: 3}
      propertyPath: m_LocalEulerAnglesHint.z
      value: 0
      objectReference: {fileID: 0}
    - target: {fileID: 8123383845287219679, guid: f1ce6e94f90977649a8bf0d4991433cc, type: 3}
      propertyPath: m_IsActive
      value: 0
      objectReference: {fileID: 0}
    - target: {fileID: 8610250731006852147, guid: f1ce6e94f90977649a8bf0d4991433cc, type: 3}
      propertyPath: m_AnchoredPosition.x
      value: -58
      objectReference: {fileID: 0}
    m_RemovedComponents: []
  m_SourcePrefab: {fileID: 100100000, guid: f1ce6e94f90977649a8bf0d4991433cc, type: 3}
