%YAML 1.1
%TAG !u! tag:unity3d.com,2011:
--- !u!114 &11400000
MonoBehaviour:
  m_ObjectHideFlags: 0
  m_CorrespondingSourceObject: {fileID: 0}
  m_PrefabInstance: {fileID: 0}
  m_PrefabAsset: {fileID: 0}
  m_GameObject: {fileID: 0}
  m_Enabled: 1
  m_EditorHideFlags: 0
  m_Script: {fileID: 11500000, guid: 28505185ee7da34489fb06144e122c7e, type: 3}
  m_Name: Empty_Kit
  m_EditorClassIdentifier: 
  _tower: {fileID: 2100000, guid: eb05947787a2bd1458d3d7d9a9b89813, type: 2}
  _unit: {fileID: 0}
  _line: {fileID: 0}
