%YAML 1.1
%TAG !u! tag:unity3d.com,2011:
--- !u!114 &11400000
MonoBehaviour:
  m_ObjectHideFlags: 0
  m_CorrespondingSourceObject: {fileID: 0}
  m_PrefabInstance: {fileID: 0}
  m_PrefabAsset: {fileID: 0}
  m_GameObject: {fileID: 0}
  m_Enabled: 1
  m_EditorHideFlags: 0
  m_Script: {fileID: 11500000, guid: 28505185ee7da34489fb06144e122c7e, type: 3}
  m_Name: Enemy_2_Kit
  m_EditorClassIdentifier: 
  _tower: {fileID: 2100000, guid: a892baa1fff49d342b2bac7dda5ad8ad, type: 2}
  _unit: {fileID: 2100000, guid: 75b9bae80e2045047af6391170942e11, type: 2}
  _line: {fileID: 2100000, guid: da302672e92dbf747b6aa2838cd7ea31, type: 2}
